…
``` r
options(tibble.print_min = 5)
```

``` r
pulse_data <- 
  haven::read_sas("./data_import_examples/public_pulse_data.sas7bdat") %>%
  janitor::clean_names()
  

pulse_data
```

    ## # A tibble: 1,087 x 7
    ##      id   age sex   bdi_score_bl bdi_score_01m bdi_score_06m bdi_score_12m
    ##   <dbl> <dbl> <chr>        <dbl>         <dbl>         <dbl>         <dbl>
    ## 1 10003  48.0 male             7             1             2             0
    ## 2 10015  72.5 male             6            NA            NA            NA
    ## 3 10022  58.5 male            14             3             8            NA
    ## 4 10026  72.7 male            20             6            18            16
    ## 5 10035  60.4 male             4             0             1             2
    ## # … with 1,082 more rows

``` r
pulse_tidy_data <- 
  pivot_longer(
    pulse_data, 
    bdi_score_bl:bdi_score_12m,
    names_to = "visit", 
    values_to = "bdi")

pulse_tidy_data
```

    ## # A tibble: 4,348 x 5
    ##      id   age sex   visit           bdi
    ##   <dbl> <dbl> <chr> <chr>         <dbl>
    ## 1 10003  48.0 male  bdi_score_bl      7
    ## 2 10003  48.0 male  bdi_score_01m     1
    ## 3 10003  48.0 male  bdi_score_06m     2
    ## 4 10003  48.0 male  bdi_score_12m     0
    ## 5 10015  72.5 male  bdi_score_bl      6
    ## # … with 4,343 more rows

``` r
pulse_tidy_data <- 
  pivot_longer(
    pulse_data, 
    bdi_score_bl:bdi_score_12m,
    names_to = "visit", 
    names_prefix = "bdi_score_",
    values_to = "bdi")

pulse_tidy_data
```

    ## # A tibble: 4,348 x 5
    ##      id   age sex   visit   bdi
    ##   <dbl> <dbl> <chr> <chr> <dbl>
    ## 1 10003  48.0 male  bl        7
    ## 2 10003  48.0 male  01m       1
    ## 3 10003  48.0 male  06m       2
    ## 4 10003  48.0 male  12m       0
    ## 5 10015  72.5 male  bl        6
    ## # … with 4,343 more rows
…
``` r
litters_data = 
  read_csv("./data_import_examples/FAS_litters.csv", col_types = "ccddiiii") %>% 
  janitor::clean_names() %>%
  separate(group, into = c("dose", "day_of_tx"), sep = 3) %>%
  mutate(
    dose = str_to_lower(dose),
    wt_gain = gd18_weight - gd0_weight)

litters_data
```

    ## # A tibble: 49 x 10
    ##   dose  day_of_tx litter_number gd0_weight gd18_weight gd_of_birth
    ##   <chr> <chr>     <chr>              <dbl>       <dbl>       <int>
    ## 1 con   7         #85                 19.7        34.7          20
    ## 2 con   7         #1/2/95/2           27          42            19
    ## 3 con   7         #5/5/3/83/3-3       26          41.4          19
    ## 4 con   7         #5/4/2/95/2         28.5        44.1          19
    ## 5 con   7         #4/2/95/3-3         NA          NA            20
    ## # … with 44 more rows, and 4 more variables: pups_born_alive <int>,
    ## #   pups_dead_birth <int>, pups_survive <int>, wt_gain <dbl>
…
litter_data <- 
  read_csv("./data_import_examples/FAS_litters.csv", col_types = "ccddiiii") %>%
  janitor::clean_names() %>%
  select(-pups_survive) %>%
  mutate(
    wt_gain = gd18_weight - gd0_weight,
    group = str_to_lower(group))

fas_data <- 
  left_join(pup_data, litter_data, by = "litter_number")
fas_data
```

    ## # A tibble: 313 x 13
    ##   litter_number sex   pd_ears pd_eyes pd_pivot pd_walk group gd0_weight
    ##   <chr>         <chr>   <int>   <int>    <int>   <int> <chr>      <dbl>
    ## 1 #85           male        4      13        7      11 con7        19.7
    ## 2 #85           male        4      13        7      12 con7        19.7
    ## 3 #1/2/95/2     male        5      13        7       9 con7        27  
    ## 4 #1/2/95/2     male        5      13        8      10 con7        27  
    ## 5 #5/5/3/83/3-3 male        5      13        8      10 con7        26  
    ## # … with 308 more rows, and 5 more variables: gd18_weight <dbl>,
    ## #   gd_of_birth <int>, pups_born_alive <int>, pups_dead_birth <int>,
    ## #   wt_gain <dbl>
